// Jest Snapshot v1, https://goo.gl/fbAQLP

exports[`components/scrum/modal/APIErrorModal - Snapshot check Test Wrapper matches snapshot render 1`] = `
<modal-stub
  animationduration="500"
  class="APIErrorModal"
  gradient="danger"
  modalclasses="modal-danger modal-dialog-centered"
  showclose="true"
  type=""
>
  <h6
    class="modal-title"
    id="modal-title-default"
  >
    Oops!
  </h6>
   
  <p>
    Please report the following:
  </p>
   
  <p>
    Status: 0 - 
  </p>
   
  <template>
    <base-button-stub
      icon=""
      nativetype="button"
      size=""
      tag="button"
      text=""
      textcolor=""
      type="white"
    >
      Retry
    </base-button-stub>
  </template>
</modal-stub>
`;
