// Jest Snapshot v1, https://goo.gl/fbAQLP

exports[`components/scrum/ColumnRow - sanity check Test Wrapper matches snapshot render 1`] = `
<div
  class="sc-row"
>
  <column-stub
    column="[object Object]"
  />
   
  <footer
    class="footerMain"
  >
    <div>
      <hr
        id="footerBorder"
      />
       
      <vue-markdown-stub
        anchorattributes="[object Object]"
        breaks="true"
        class="footerText"
        emoji="true"
        highlight="true"
        html="true"
        langprefix="language-"
        linkify="true"
        postrender="function _default(htmlData) {
              return htmlData;
            }"
        prerender="function _default(sourceData) {
              return sourceData;
            }"
        quotes="“”‘’"
        show="true"
        source=""
        tableclass="table"
        tasklists="true"
        tocanchorclass="toc-anchor"
        tocanchorlink="true"
        tocanchorlinkclass="toc-anchor-link"
        tocanchorlinkspace="true"
        tocanchorlinksymbol="#"
        tocclass="table-of-contents"
        tocfirstlevel="2"
        typographer="true"
        watches="source,show,toc"
        xhtmlout="true"
      />
    </div>
     
    <div
      class="sc-copyrights-btn"
    >
      <i
        style="font-size: 15px;"
      >
        <span>
          Copyrights
        </span>
      </i>
    </div>
  </footer>
</div>
`;
