// Jest Snapshot v1, https://goo.gl/fbAQLP

exports[`components/scrum/modal/ExplanationModal - sanity check Test Wrapper matches snapshot render 1`] = `
<modal-stub
  animationduration="500"
  gradient="default"
  modalclasses="modal-dialog-centered"
  showclose="true"
  type=""
>
  <h6
    class="modal-title text-white"
  >
    The Expected card descirption
  </h6>
   
  <div
    class="text-white urlColor urlColor-dark"
  >
    <vue-markdown-stub
      anchorattributes="[object Object]"
      breaks="true"
      emoji="true"
      highlight="true"
      html="true"
      langprefix="language-"
      linkify="true"
      postrender="function _default(htmlData) {
              return htmlData;
            }"
      prerender="function _default(sourceData) {
              return sourceData;
            }"
      quotes="“”‘’"
      show="true"
      source=""
      tableclass="table"
      tasklists="true"
      tocanchorclass="toc-anchor"
      tocanchorlink="true"
      tocanchorlinkclass="toc-anchor-link"
      tocanchorlinkspace="true"
      tocanchorlinksymbol="#"
      tocclass="table-of-contents"
      tocfirstlevel="2"
      typographer="true"
      watches="source,show,toc"
      xhtmlout="true"
    >
      Your answer: The actual one
    </vue-markdown-stub>
     
    <vue-markdown-stub
      anchorattributes="[object Object]"
      breaks="true"
      emoji="true"
      highlight="true"
      html="true"
      langprefix="language-"
      linkify="true"
      postrender="function _default(htmlData) {
              return htmlData;
            }"
      prerender="function _default(sourceData) {
              return sourceData;
            }"
      quotes="“”‘’"
      show="true"
      source=""
      tableclass="table"
      tasklists="true"
      tocanchorclass="toc-anchor"
      tocanchorlink="true"
      tocanchorlinkclass="toc-anchor-link"
      tocanchorlinkspace="true"
      tocanchorlinksymbol="#"
      tocclass="table-of-contents"
      tocfirstlevel="2"
      typographer="true"
      watches="source,show,toc"
      xhtmlout="true"
    >
      Right answer: The correct one
    </vue-markdown-stub>
     
    <vue-markdown-stub
      anchorattributes="[object Object]"
      breaks="true"
      emoji="true"
      highlight="true"
      html="true"
      langprefix="language-"
      linkify="true"
      postrender="function _default(htmlData) {
              return htmlData;
            }"
      prerender="function _default(sourceData) {
              return sourceData;
            }"
      quotes="“”‘’"
      show="true"
      source=""
      tableclass="table"
      tasklists="true"
      tocanchorclass="toc-anchor"
      tocanchorlink="true"
      tocanchorlinkclass="toc-anchor-link"
      tocanchorlinkspace="true"
      tocanchorlinksymbol="#"
      tocclass="table-of-contents"
      tocfirstlevel="2"
      typographer="true"
      watches="source,show,toc"
      xhtmlout="true"
    >
      Blabla
    </vue-markdown-stub>
  </div>
</modal-stub>
`;
